* Total reference orbital contributions:
    AFUXXX  E     1       2.00002     -0.12565689E+02
    AFUXXX  E     2       2.00000     -0.10085084E+02
    AFUXXX  E     3       1.99999     -0.80747936E+01
    AFUXXX  E     4       1.99999     -0.80747936E+01
    AFUXXX  E     5       1.99934     -0.43446774E+01
    AFUXXX  E     6       1.99934     -0.43446774E+01
    AFUXXX  E     7       1.99905     -0.40406678E+01
    AFUXXX  E     8       1.99948     -0.40406678E+01
    AFUXXX  E     9       1.99913     -0.40406678E+01
    AFUXXX  E    10       1.99055     -0.21324652E+01
    AFUXXX  E    11       1.99674     -0.13354477E+01
    AFUXXX  E    12       1.97251     -0.98353353E+00
    AFUXXX  E    13       1.97251     -0.98353353E+00
    AFUXXX  E    14       0.24253     -0.34920842E+00
    AFUXXX  E    15       0.11154     -0.34920842E+00
    AFUXXX  E    16       0.26380     -0.34920842E+00
    AFUXXX  E    17       0.19815     -0.32405790E+00
    AFUXXX  E    18       0.09020     -0.32405790E+00
    AFUXXX  E    19       0.12766     -0.32405790E+00
    AFUXXX  E    20       0.20009     -0.32405790E+00
    AFUXXX  E    21       0.06505     -0.20167848E+00
    AFUXXX  E    22       0.28390     -0.19291378E+00
    AFUXXX  E    23       0.28390     -0.19291378E+00
    AFUXXX  E    24       0.25493     -0.18402313E+00
    AFUXXX  E    25       0.24577     -0.18402312E+00
    AFUXXX  E    26       0.25560     -0.18402312E+00

...

* Total gross contributions:
   AFUXXX              28.5518   E -    28.5518   P -     0.0000
   AFF1XX               9.5747   E -     9.5747   P -     0.0000
   AFF2XX               9.5747   E -     9.5747   P -     0.0000
   AFF3XX               9.5747   E -     9.5747   P -     0.0000
   AFF4XX               9.5747   E -     9.5747   P -     0.0000
   AFF5XX               9.5747   E -     9.5747   P -     0.0000
   AFF6XX               9.5747   E -     9.5747   P -     0.0000
   Polarization:     0.0000
