Thallium atom
 1 15 1
1S
2S
2P
3S
3P
3D
4S
4P
4D
4F
5S
5P
5D
6S
6P 1
ANG 1 7
-1
MCP 1 2
MCDF 24
2 0 3 0 14
81 204.0
NUC 3
GAUSS 4
1S  22
2P- 17
2P  17 2P- 1 17
3D- 13
3D  13 3D- 1 13
4F-  8
4F   8 4F- 1  8
1.8623969E+07
3.6867955E+06
9.6378590E+05
2.9791376E+05
1.0338698E+05
3.9115255E+04
1.5831221E+04
6.7653929E+03
3.0236823E+03
1.4021816E+03
6.6607727E+02
3.0047853E+02
1.5516535E+02
7.9776475E+01
3.7180980E+01
1.9582277E+01
8.6490359E+00
4.4732684E+00
1.5727172E+00
7.2742584E-01
1.4401137E-01
5.4696933E-02
8.4903516E+04
2.0108565E+04
6.5288090E+03
2.4952142E+03
1.0578546E+03
4.8183325E+02
2.3099156E+02
1.1460187E+02
5.6345780E+01
2.8858154E+01
1.4257420E+01
7.1249109E+00
3.4904261E+00
1.5777429E+00
6.6465131E-01
1.5479093E-01
4.8201891E-02
4.4351057E+03
1.3418293E+03
5.2396706E+02
2.3190630E+02
1.1060211E+02
5.4985007E+01
2.8038853E+01
1.4122437E+01
7.0047966E+00
3.4026123E+00
1.5589903E+00
6.6349200E-01
2.5380659E-01
4.6883901E+02
1.6331607E+02
6.9830068E+01
3.2496980E+01
1.5735686E+01
7.6001533E+00
3.5619156E+00
1.4998623E+00
ORBOUT 1 - 15
AL
END
